/*************************************************************************
**
** ANEIN005.I
**
**************************************************************************/

{adapters/neogrid/include/anein001.i in}
{adapters/neogrid/include/anein002.i in}

DEF INPUT PARAMETER TABLE FOR tt-element-in.
DEF INPUT PARAMETER TABLE FOR tt-attribute-in.

{adapters/neogrid/include/anein007.i}
