/*************************************************************************
**
** ANEIN006.I
**
**************************************************************************/

{adapters/neogrid/include/anein001.i in}
{adapters/neogrid/include/anein002.i in}
{adapters/neogrid/include/anein007.i}


