
{Includes/library.i}


{&OUT} '<!DOCTYPE HTML PUBLIC "-//W3C//DTD HTML 4.0 Transitional//EN" > ' SKIP.
{&OUT} '<HTML>' SKIP.
{&OUT} '  <HEAD> ' SKIP.
{&OUT} '    <META http-equiv="Expires" content="-1">' SKIP.
{&OUT} '    <META http-equiv="X-UA-Compatible" content="IE=EmulateIE5">' SKIP.
{&OUT} '    <META http-equiv="Cache-Control" content="no-cache" >' SKIP.
{&OUT} '    <META http-equiv="Content-Type" content="text/html; charset=iso-8859-1" >' SKIP.
{&OUT} '    <META HTTP-EQUIV="Pragma" CONTENT="no-cache">' SKIP.
{&OUT} '    <TITLE>Fastplas Data Collection Web Interface</TITLE>' SKIP.
{&OUT} '    <link href="/' Broker '/includes/styles.css" rel="stylesheet" type="text/css">' SKIP.
{&OUT} '    <script language="javascript" src="/' Broker '/includes/library.js?' RANDOM(0, 999999999) '"></script>' SKIP.
{&OUT} '    <script language="javascript">var Broker = "' Broker '" </script>' SKIP.

/*
{&OUT} '
<script language="javascript" src="/' Broker '/includes/AjaxLibrary.js?' RANDOM(0, 999999999) '"></script>
' SKIP.
*/

{&OUT} '</HEAD>' SKIP.


