/*buffers*/

assign current-language = current-language no-error.

def buffer transporte             for mgcad.transporte.
def buffer empresa                for mgcad.empresa.
def buffer param-global           for mgcad.param-global. 
DEF BUFFER localizacao            FOR mgcad.localizacao.
DEF BUFFER ccusto                 FOR mgcad.ccusto.
def buffer ITEM                   for mgcad.ITEM.
def buffer estabelec              for mgcad.estabelec.
def buffer repres                 for mgcad.repres.
def buffer natur-oper             for mgcad.natur-oper.  
def buffer emitente               for mgcad.emitente.
def buffer item-cli               for mgcad.item-cli.



