DEFINE BUFFER prog_dtsul             FOR prog_dtsul.
DEFINE BUFFER modul_dtsul            FOR modul_dtsul.
DEFINE BUFFER procedimento           FOR procedimento.
DEFINE BUFFER empresa                FOR mguni.empresa.
DEFINE BUFFER estabelec              FOR mguni.estabelec.
DEFINE BUFFER cidade                 FOR mguni.cidade.   
DEFINE BUFFER pais                   FOR mguni.pais.  
DEFINE BUFFER usuar_mestre           FOR usuar_mestre.
DEFINE BUFFER configur_layout_impres FOR configur_layout_impres.
DEFINE BUFFER configur_tip_imprsor   FOR configur_tip_imprsor.
DEFINE BUFFER ped_exec               FOR ped_exec.
DEFINE BUFFER servid_exec            FOR servid_exec.
DEFINE BUFFER layout_impres_padr     FOR layout_impres_padr.
DEFINE BUFFER imprsor_usuar          FOR imprsor_usuar.
DEFINE BUFFER layout_impres          FOR layout_impres.
DEFINE BUFFER tip_imprsor            FOR tip_imprsor. 
DEFINE BUFFER impressora             FOR impressora.
DEFINE BUFFER servid_exec_imprsor    FOR servid_exec_imprsor.
DEFINE BUFFER dwb_rpt_select         FOR dwb_rpt_select.
DEFINE BUFFER dwb_rpt_param          FOR dwb_rpt_param.
DEFINE BUFFER log_exec_prog_dtsul    FOR log_exec_prog_dtsul.
